NutriCare Microbiome Sample Update
…
samples <- 
  y %>%
  separate(sample_id, into = c("subjectid", "date", "tube")) %>%
  select(subjectid, Date.Sample.Collected, site) %>%
  unique %>%
  arrange(Date.Sample.Collected) %>% 
  mutate(n = seq(1, nrow(.))) %>%
  group_by(subjectid) %>%
  mutate(time.point = row_number()) %>%
  mutate(time.point = as.factor(time.point)) %>%
  mutate(site = gsub("^(\\d).*", "\\1", subjectid))

samples

## # A tibble: 23 x 5
## # Groups:   subjectid [19]
##    subjectid Date.Sample.Collected site      n time.point
##    <chr>     <date>                <chr> <int> <fct>     
##  1 3007      2021-01-05            3         1 1         
##  2 1003      2021-01-13            1         2 1         
##  3 3012      2021-01-29            3         3 1         
##  4 3029      2021-02-05            3         4 1         
##  5 3035      2021-02-11            3         5 1         
##  6 3045      2021-02-21            3         6 1         
##  7 1010      2021-03-05            1         7 1         
##  8 3068      2021-03-20            3         8 1         
##  9 3078      2021-04-01            3         9 1         
## 10 3077      2021-04-04            3        10 1         
## #  with 13 more rows
…
